{
    "compilerOptions": {
      "baseUrl": "src",
      "paths": {
        "@/*": [
          "src/*"
        ]
      }
    },
    "include":["src",
    "src/**/*.jsx"],
    "exclude": [
      "node_modules",
      "public",
      "build"
    ]
}
  